{
  "Offices": [
    {
      "name": "DC Office",
      "location": {
        "lat": 38.9065495,
        "lng": -77.0518192
      },
      "stats": {
        "phone": "up",
        "network": "up",
        "event": "open",
        "info": ""
      }
    },
    {
      "name": "New York Office",
      "location": {
        "lat": 40.736815,
        "lng": -73.9907276
      },
      "stats": {
        "phone": "up",
        "network": "down",
        "event": "open",
        "info": ""
      }
    },
    {
      "name": "Dallas Office",
      "location": {
        "lat": 32.8847445,
        "lng": -96.7716266
      },
      "stats": {
        "phone": "up",
        "network": "down",
        "event": "open",
        "info": ""
      }
    },
    {
      "name": "London Office",
      "location": {
        "lat": 51.5225946,
        "lng": -0.0871597
      },
      "stats": {
        "phone": "up",
        "network": "up",
        "event": "open",
        "info": ""
      }
    },
    {
      "name": "Sao Paulo Office",
      "location": {
        "lat": -23.5655345,
        "lng": -46.702475
      },
      "stats": {
        "phone": "up",
        "network": "up",
        "event": "open",
        "info": ""
      }
    },
    {
      "name": "Atlanta Office",
      "location": {
        "lat": 33.790659,
        "lng": -84.3868249
      },
      "stats": {
        "phone": "down",
        "network": "up",
        "event": "open",
        "info": ""
      }
    },
    {
      "name": "Boston Office",
      "location": {
        "lat": 42.3559986,
        "lng": -71.0561464
      },
      "stats": {
        "phone": "up",
        "network": "up",
        "event": "open",
        "info": ""
      }
    },
    {
      "name": "Charlotte Office",
      "location": {
        "lat": 35.2251209,
        "lng": -80.8486356
      },
      "stats": {
        "phone": "up",
        "network": "up",
        "event": "open",
        "info": ""
      }
    },
    {
      "name": "Chicago Office",
      "location": {
        "lat": 41.888685,
        "lng": -87.6298082
      },
      "stats": {
        "phone": "up",
        "network": "up",
        "event": "open",
        "info": ""
      }
    },
    {
      "name": "Dubai Office",
      "location": {
        "lat": 25.1258998,
        "lng": 55.2068986
      },
      "stats": {
        "phone": "up",
        "network": "up",
        "event": "open",
        "info": ""
      }
    },
    {
      "name": "Dundas Office",
      "location": {
        "lat": 43.2660181,
        "lng": -79.9601981
      },
      "stats": {
        "phone": "up",
        "network": "up",
        "event": "open",
        "info": ""
      }
    },
    {
      "name": "Los Angeles Office",
      "location": {
        "lat": 34.0480313,
        "lng": -118.2596115
      },
      "stats": {
        "phone": "up",
        "network": "up",
        "event": "open",
        "info": ""
      }
    },
    {
      "name": "Miami Office",
      "location": {
        "lat": 25.7632609,
        "lng": -80.2590739
      },
      "stats": {
        "phone": "up",
        "network": "up",
        "event": "open",
        "info": ""
      }
    },
    {
      "name": "Minnesota Office",
      "location": {
        "lat": 44.9739096,
        "lng": -93.2761491
      },
      "stats": {
        "phone": "up",
        "network": "up",
        "event": "open",
        "info": ""
      }
    },
    {
      "name": "Ottowa Office",
      "location": {
        "lat": 45.4108479,
        "lng": -75.694919
      },
      "stats": {
        "phone": "up",
        "network": "up",
        "event": "open",
        "info": ""
      }
    },
    {
      "name": "Orlando Office",
      "location": {
        "lat": 28.5381527,
        "lng": -81.381901
      },
      "stats": {
        "phone": "up",
        "network": "up",
        "event": "open",
        "info": ""
      }
    },
    {
      "name": "San Franciso Office",
      "location": {
        "lat": 37.7583355,
        "lng": -122.3780637
      },
      "stats": {
        "phone": "up",
        "network": "up",
        "event": "open",
        "info": ""
      }
    },
    {
      "name": "Seattle Office",
      "location": {
        "lat": 47.6069523,
        "lng": -122.3393558
      },
      "stats": {
        "phone": "up",
        "network": "up",
        "event": "open",
        "info": ""
      }
    },
    {
      "name": "Shanghai Office",
      "location": {
        "lat": 31.2280725,
        "lng": 121.4521616
      },
      "stats": {
        "phone": "up",
        "network": "up",
        "event": "closed",
        "info": ""
      }
    },
    {
      "name": "Toronto Office",
      "location": {
        "lat": 43.6714244,
        "lng": -79.422935
      },
      "stats": {
        "phone": "up",
        "network": "up",
        "event": "open",
        "info": ""
      }
    },
    {
      "name": "Vancouver Office",
      "location": {
        "lat": 49.2749546,
        "lng": -123.1257506
      },
      "stats": {
        "phone": "up",
        "network": "up",
        "event": "open",
        "info": ""
      }
    },
    {
      "name": "Paris Office",
      "location": {
        "lat": 48.8700429,
        "lng": 2.3095445
      },
      "stats": {
        "phone": "up",
        "network": "up",
        "event": "open",
        "info": ""
      }
    },
    {
      "name": "Houston Office",
      "location": {
        "lat": 29.7569292,
        "lng": -95.3651231
      },
      "stats": {
        "phone": "up",
        "network": "up",
        "event": "open",
        "info": ""
      }
    }
  ]
}